{
    "api": {
        "id": null,
        "worker-id": null
    },
    "http": {
        "enabled": false,
        "host": "127.0.0.1",
        "port": 0,
        "access-token": null,
        "restricted": true
    },
    "autosave": true,
    "background": false,
    "colors": true,
    "title": true,
    "randomx": {
        "init": -1,
        "mode": "auto",
        "1gb-pages": false,
        "rdmsr": true,
        "wrmsr": true,
        "cache_qos": false,
        "numa": true,
        "scratchpad_prefetch_mode": 1
    },
    "cpu": {
        "enabled": true,
        "huge-pages": true,
        "hw-aes": null,
        "priority": null,
        "memory-pool": false,
        "yield": true,
        "asm": true,
        "argon2-impl": null,
        "astrobwt-max-size": 550,
        "astrobwt-avx2": false,
        "argon2": [0, 4, 1, 5, 2, 6, 3, 7],
        "astrobwt": [0, 4, 1, 5, 2, 6, 3, 7],
        "cn": [
            [1, 0],
            [1, 1],
            [1, 2]
        ],
        "cn-heavy": [
            [1, 0],
            [1, 1]
        ],
        "cn-lite": [
            [1, 0],
            [1, 1],
            [1, 2],
            [1, 3],
            [1, 4],
            [1, 5]
        ],
        "cn-pico": [
            [2, 0],
            [2, 4],
            [2, 1],
            [2, 5],
            [2, 2],
            [2, 6],
            [2, 3],
            [2, 7]
        ],
        "rx": [0, 1, 2],
        "rx/arq": [0, 4, 1, 5, 2, 6, 3, 7],
        "rx/wow": [0, 1, 2, 3, 4, 5],
        "cn/0": false,
        "cn-lite/0": false,
        "kawpow": false,
        "rx/keva": "rx/wow"
    },
    "opencl": {
        "enabled": false,
        "cache": true,
        "loader": null,
        "platform": "AMD",
        "adl": true,
        "cn/0": false,
        "cn-lite/0": false
    },
    "cuda": {
        "enabled": false,
        "loader": null,
        "nvml": true,
        "cn/0": false,
        "cn-lite/0": false
    },
    "donate-level": 1,
    "donate-over-proxy": 1,
    "log-file": null,
    "pools": [
        {
            "algo": null,
            "coin": null,
            "url": "donate.v2.xmrig.com:3333",
            "user": "YOUR_WALLET_ADDRESS",
            "pass": "x",
            "rig-id": null,
            "nicehash": false,
            "keepalive": false,
            "enabled": true,
            "tls": false,
            "tls-fingerprint": null,
            "daemon": false,
            "socks5": null,
            "self-select": null
        }
    ],
    "print-time": 60,
    "health-print-time": 60,
    "retries": 5,
    "retry-pause": 5,
    "syslog": false,
    "tls": {
        "enabled": false,
        "protocols": null,
        "cert": null,
        "cert_key": null,
        "ciphers": null,
        "ciphersuites": null,
        "dhparam": null
    },
    "user-agent": null,
    "verbose": 0,
    "watch": true,
    "pause-on-battery": false
}